[
  { "id": 1, "name": "Maison", "image": "home.png", "audio": "MAISON.mp3", "items": "home.json", "folder": "home" },
  { "id": 2, "name": "Animaux", "image": "animals.png", "audio": "ANIMAUX.mp3", "items": "animals.json", "folder": "animals" },
  { "id": 3, "name": "École", "image": "school.png", "audio": "ECOLE.mp3", "items": "school.json", "folder": "school" },
  { "id": 4, "name": "Couleurs", "image": "colours.png", "audio": "COULEURS.mp3", "items": "colours.json", "folder": "colours" },
  { "id": 5, "name": "Chiffres", "image": "numbers.png", "audio": "CHIFFRES.mp3", "items": "numbers.json", "folder": "numbers" },
  { "id": 6, "name": "Corps", "image": "body.png", "audio": "CORPS.mp3", "items": "body.json", "folder": "body" },
  { "id": 7, "name": "Vêtements", "image": "clothes.png", "audio": "VETEMENTS.mp3", "items": "clothes.json", "folder": "clothes" },
  { "id": 8, "name": "Nourriture", "image": "food.png", "audio": "NOURRITURE.mp3", "items": "food.json", "folder": "food" },
  { "id": 9, "name": "Jouets", "image": "toys.png", "audio": "JOUETS.mp3", "items": "toys.json", "folder": "toys" },
  { "id": 10, "name": "Formes", "image": "shapes.png", "audio": "FORMES.mp3", "items": "shapes.json", "folder": "shapes" }
]
